<?xml version="1.0" encoding="UTF-8"?>
<!DOCTYPE svg PUBLIC "-//W3C//DTD SVG 1.1//EN" "http://www.w3.org/Graphics/SVG/1.1/DTD/svg11.dtd">
<!-- Creator: CorelDRAW 2018 (64 Bit) -->
<svg xmlns="http://www.w3.org/2000/svg" xml:space="preserve" width="17px" height="14px" version="1.1" style="shape-rendering:geometricPrecision; text-rendering:geometricPrecision; image-rendering:optimizeQuality; fill-rule:evenodd; clip-rule:evenodd"
viewBox="0 0 0.047 0.038"
 xmlns:xlink="http://www.w3.org/1999/xlink">
 <defs>
  <style type="text/css">
   <![CDATA[
    .fil0 {fill:#897967}
   ]]>
  </style>
 </defs>
 <g id="Layer_x0020_1">
  <metadata id="CorelCorpID_0Corel-Layer"/>
  <path class="fil0" d="M0.047 0.005c-0.002,0 -0.004,0.001 -0.005,0.001 0.002,-0.001 0.003,-0.003 0.004,-0.005 -0.002,0.001 -0.004,0.002 -0.006,0.002 -0.002,-0.002 -0.005,-0.003 -0.007,-0.003 -0.006,0 -0.01,0.004 -0.01,0.01 0,0 0,0.001 0,0.002 -0.008,-0.001 -0.015,-0.004 -0.02,-0.01 -0.001,0.001 -0.001,0.003 -0.001,0.005 0,0.003 0.002,0.006 0.004,0.008 -0.001,0 -0.003,-0.001 -0.004,-0.002 0,0 0,0.001 0,0.001 0,0.004 0.003,0.008 0.008,0.009 -0.001,0 -0.002,0 -0.003,0 -0.001,0 -0.001,0 -0.002,0 0.002,0.004 0.005,0.007 0.009,0.007 -0.003,0.002 -0.007,0.004 -0.012,0.004 0,0 -0.001,0 -0.002,0 0.004,0.003 0.009,0.004 0.015,0.004 0.018,0 0.027,-0.014 0.027,-0.027 0,-0.001 0,-0.001 0,-0.001 0.002,-0.002 0.004,-0.004 0.005,-0.005z"/>
 </g>
</svg>
